…
invoke_example <- invoke(c, date_list)

docall_example <- do.call("c",date_list)

# View the results, notice that the first just converts them to character

examples <- 
  tibble(chr_example,
         reduce_example,
         invoke_example,
         docall_example
  )

print(examples, n = 3)
## # A tibble: 12 x 4
##   chr_example reduce_example invoke_example docall_example
##   <chr>       <date>         <date>         <date>        
## 1 1999-01-01  1999-01-01     1999-01-01     1999-01-01    
## 2 1999-02-01  1999-02-01     1999-02-01     1999-02-01    
## 3 1999-03-01  1999-03-01     1999-03-01     1999-03-01    
## # ... with 9 more rows
…
