…
This period of rapid growth seems worth exploring as a topic for a data visualization.6 While the histogram above clearly illustrates the number of counties added each year, I’m curious if there is a visually-richer way to tell this story.

I like the linear x-axis because it is a familiar way to representing time. The y-axis, however, feels like an opportunity for improvement. I’ll see what this pattern of county creation looks like when represented as a cumulative count rather than an individual one:

nc_year <- nc_ready %>% 
  st_set_geometry(NULL) %>% 
  group_by(YEAR) %>% 
  summarise(NAME = list(NAME) %>% map_chr(str_c, collapse = ", "),
            COUNT = sum(n())
            ) %>% 
  mutate(COUNT_CUMULATIVE = cumsum(COUNT)) %>% 
  arrange(YEAR)

print(nc_year, n=5)
## # A tibble: 55 x 4
##    YEAR NAME                                      COUNT COUNT_CUMULATIVE
##   <int> <chr>                                     <int>            <int>
## 1  1668 Currituck, Pasquotank, Perquimans, Chowan     4                4
## 2  1705 Craven                                        1                5
## 3  1712 Beaufort, Hyde                                2                7
## 4  1722 Bertie, Carteret                              2                9
## 5  1729 Tyrrell, New Hanover                          2               11
## # ... with 50 more rows
…
  group_by(YEAR) %>% 
  summarise(COUNTY_SEAT = list(COUNTY_SEAT),
            NAME = list(NAME),
            COUNT = sum(n()),
            COUNT_RUG = as.integer(COUNT > 0) * 4
            ) %>% 
  mutate(MAX_LGL = COUNT == as.integer(max(COUNT)),
         CUMULATIVE = cumsum(COUNT), 
         LABEL = map_chr(NAME, str_c, collapse = "\n"),
         LABEL = if_else(MAX_LGL, str_c(max_year_header, LABEL, sep = "\n"), ""),
         SHAPE = if_else(MAX_LGL, 1, 32 ) %>% as.integer()
         )   
# Check out the result:
print(st_set_geometry(nc_year, NULL),n=3) 
## # A tibble: 55 x 9
##    YEAR COUNTY_SEAT NAME    COUNT COUNT_RUG MAX_LGL CUMULATIVE LABEL SHAPE
## * <int> <list>      <list>  <int>     <dbl> <lgl>        <int> <chr> <int>
## 1  1668 <chr [4]>   <chr [~     4        4. FALSE            4 ""       32
## 2  1705 <chr [1]>   <chr [~     1        4. FALSE            5 ""       32
## 3  1712 <chr [2]>   <chr [~     2        4. FALSE            7 ""       32
## # ... with 52 more rows
…
